{
   "delta": 962052,
   "max": 10800000,
   "speed": 0.00009259259259259259,
   "revisit": 5000,
   "shape": "crash4",
   "shape_swap": false,
   "info": "below the maximum time, keeping shape crash4"
}